/* XPM */
static char * cloudy_xpm[] = {
"18 18 73 1",
" 	c None",
".	c #869CE3",
"+	c #869CE4",
"@	c #8398E4",
"#	c #8095E4",
"$	c #7D93E5",
"%	c #7A8FE6",
"&	c #788CE7",
"*	c #7E93E5",
"=	c #7B90E6",
"-	c #788DE6",
";	c #758AE7",
">	c #7286E8",
",	c #6F83E8",
"'	c #6C80E9",
")	c #6A7DEA",
"!	c #768AE7",
"~	c #7386E7",
"{	c #7184E9",
"]	c #6D80E9",
"^	c #6B7DEA",
"/	c #687AEB",
"(	c #6577EC",
"_	c #6274EC",
":	c #5F71ED",
"<	c #5C6EED",
"[	c #596AEE",
"}	c #5667EF",
"|	c #5364F0",
"1	c #5061F0",
"2	c #6B7EEA",
"3	c #687BEB",
"4	c #6578EB",
"5	c #5F72ED",
"6	c #5C6EEE",
"7	c #5A6BEE",
"8	c #5768EE",
"9	c #5465F0",
"0	c #5162F0",
"a	c #4E5EF1",
"b	c #4B5BF1",
"c	c #4858F2",
"d	c #4555F3",
"e	c #4251F4",
"f	c #5D6FED",
"g	c #5A6CEE",
"h	c #5769EF",
"i	c #5163F0",
"j	c #4F5FF0",
"k	c #4C5CF1",
"l	c #4959F2",
"m	c #4655F3",
"n	c #4352F3",
"o	c #404FF4",
"p	c #3D4CF5",
"q	c #3A48F5",
"r	c #3846F6",
"s	c #4F60F1",
"t	c #4C5DF1",
"u	c #4656F3",
"v	c #4353F4",
"w	c #4150F4",
"x	c #3B4AF5",
"y	c #3847F6",
"z	c #3544F7",
"A	c #3240F8",
"B	c #2F3CF9",
"C	c #3E4DF5",
"D	c #3C4AF5",
"E	c #3643F7",
"F	c #3241F8",
"G	c #2F3DF8",
"H	c #2C3BF9",
"                  ",
"                  ",
"   ...+           ",
"  .@#$%&  ...+    ",
" *=-;>,').@#$%&   ",
"!~{]^/(_:<[}|1')  ",
"234_567890abcde:< ",
" fgh9ijklmnopqr90a",
"  stluvwpxyzABklmn",
" !~{CDyEFGHluvwpxy",
" 234_567890CDyEFG ",
"  fgh9ijklmnopqr  ",
"   stluvwpxyzAB   ",
"     CDyEFGH      ",
"                  ",
"                  ",
"                  ",
"                  "};
