/* XPM */
static char * combo_xpm[] = {
"25 18 2 1",
" 	c #274E6B",
".	c #FFFFFF",
"                         ",
" ....................... ",
" .     .               . ",
" .     .               . ",
" .......               . ",
" .     .               . ",
" .     .               . ",
" .......               . ",
" .     .               . ",
" .     .               . ",
" .......               . ",
" .     .               . ",
" .     .               . ",
" .......               . ",
" .     .               . ",
" .     .               . ",
" ....................... ",
"                         "};
